More details about the ProfRate package • ProfRate
…
sentiment_info

This function do sentiment analysis on the comments.

It generates the set of positive, negative, and tags for an instructor.

It can filter the year ti include certain from a certain year up to present.

Example:

sentiment_info(url = "https://www.ratemyprofessors.com/ShowRatings.jsp?tid=69792", y = 2009, word = 'Positive')
#> Joining, by = "word"
#> # A tibble: 28 x 2
#> # Groups:   word [28]
#>    word          n
#>    <chr>     <int>
#>  1 best          4
#>  2 great         4
#>  3 enjoyed       3
#>  4 helped        2
#>  5 helpful       2
#>  6 nice          2
#>  7 amazing       1
#>  8 avid          1
#>  9 awesome       1
#> 10 enjoyable     1
#> # ... with 18 more rows
…
